first
last
10
28
1
2015
13
12
2018
100.00
Dan
DeBruno
13
28
12
2014
26
2
2017
400.00
Tom
DeBruno
15
28
5
2013
8
11
2004
143.00
fname
lname
20
4
8
2000
29
4
2005
342.32
Phil
DeBs
43
8
7
2012
24
5
2013
999.99
