.
|-- build.sh
|-- input
|-- obj
|   |-- ExerciseI1.class
|   |-- ExerciseI2.class
|   |-- ExerciseI3.class
|   |-- ExerciseI3Methods.class
|   |-- ExerciseI4.class
|   `-- ExerciseI4Methods.class
|-- out
|   |-- ExerciseI1.output.txt
|   |-- ExerciseI1.source.txt
|   |-- ExerciseI2.output.txt
|   |-- ExerciseI2.source.txt
|   |-- ExerciseI3.output.txt
|   |-- ExerciseI3.source.txt
|   |-- ExerciseI4.output.txt
|   |-- ExerciseI4.source.txt
|   |-- ExerciseI4Methods.source.txt
|   |-- build.sh.txt
|   |-- input.txt
|   `-- tree.txt
`-- src
    |-- ExerciseI1.java
    |-- ExerciseI2.java
    |-- ExerciseI3.java
    |-- ExerciseI4.java
    `-- ExerciseI4Methods.java

3 directories, 25 files
